numInserts,5000,10000,15000,20000,25000,30000,35000,40000,45000,50000,55000,60000,65000,70000,75000,80000,85000,90000,95000,100000,105000,110000,115000,120000,125000,130000,135000,140000,145000
1,0.000265,0.000921,0.000981,0.001078,0.000865,0.000901,0.001023,0.001073,0.000914,0.000902,0.000925,0.000935,0.001002,0.001018,0.001046,0.001012,0.001070,0.000885,0.000869,0.000895,0.000868,0.000910,0.000937,0.000945,0.000915,0.000922,0.000981,0.000990,0.000990
2,0.000285,0.001148,0.001026,0.001146,0.000876,0.001029,0.001088,0.001109,0.000857,0.000949,0.000984,0.000998,0.001032,0.001046,0.001040,0.001073,0.001040,0.000851,0.000909,0.000898,0.000934,0.000942,0.000926,0.000945,0.000959,0.000956,0.000979,0.000986,0.001003
3,0.000300,0.001170,0.001078,0.001130,0.000914,0.001039,0.001090,0.001113,0.000924,0.000836,0.000980,0.000951,0.001010,0.000967,0.001060,0.001066,0.001022,0.000855,0.000885,0.000907,0.000937,0.000921,0.000922,0.000931,0.000971,0.000979,0.000987,0.000997,0.000984
4,0.000551,0.001176,0.001090,0.001140,0.000872,0.001035,0.001079,0.001065,0.000925,0.000947,0.000928,0.000987,0.001021,0.001041,0.001037,0.001072,0.001084,0.000894,0.000883,0.000922,0.000926,0.000920,0.000937,0.000928,0.000971,0.000978,0.000972,0.000988,0.000997
5,0.000810,0.000775,0.001095,0.001110,0.000902,0.001056,0.000996,0.001112,0.000921,0.000954,0.000980,0.001009,0.001031,0.001039,0.001064,0.001061,0.001046,0.000849,0.000904,0.000904,0.000923,0.000933,0.000948,0.000935,0.000949,0.000946,0.000979,0.000990,0.001001

