SocketProcBind_10,ProcBindClose_10,test1,SocketProcBind_12,ProcBindClose_12,test1,SocketProcBind_14,ProcBindClose_14,test1,SocketProcBind_16,ProcBindClose_16,test1,SocketProcBind_18,ProcBindClose_18,test1,SocketProcBind_20,ProcBindClose_20,test1,SocketProcBind_22,ProcBindClose_22,test1,SocketProcBind_24,ProcBindClose_24,test1,SocketProcBind_26,ProcBindClose_26,test1,SocketProcBind_28,ProcBindClose_28,test1,SocketProcBind_30,ProcBindClose_30,test1,SocketProcBind_32,ProcBindClose_32,test1,SocketProcBind_34,ProcBindClose_34,test1,SocketProcBind_36,ProcBindClose_36,test1,SocketProcBind_38,ProcBindClose_38,test1
0.297637,0.281306,0.497042,0.221081,0.223195,0.4992,0.221315,0.243327,0.506742,0.179942,0.224499,0.501725,0.237763,0.221009,0.504844,0.194146,0.234558,0.525248,0.243026,0.241251,0.505748,0.251589,0.273193,0.504544,0.246073,0.241428,0.494997,0.229485,0.267567,0.505108,0.22251,0.233237,0.501203,0.255597,0.243785,0.503945,0.25101,0.235857,0.497647,0.260542,0.275715,0.499052,0.245998,0.216536,0.492926
1.90074,1.87779,1.2154,1.66841,1.81145,1.2354,2.09392,1.97525,1.20831,1.86658,1.92503,1.20375,1.71246,1.73774,1.21385,1.68936,1.87181,1.2176,1.67019,1.53707,1.19417,1.69216,1.64873,1.29397,1.76,1.6454,1.21025,1.655,1.60632,1.21407,1.20859,1.46542,1.20856,1.50199,1.57942,1.19355,1.49199,1.4238,1.20165,1.31462,1.40143,1.20007,1.38371,1.49895,1.20514
5.83383,6.73248,2.2209,6.2245,6.6995,2.23007,5.68479,5.9137,2.22799,6.56733,8.07341,2.24967,7.53692,7.40559,2.2615,7.21808,7.78598,2.21979,7.37224,7.88669,2.24841,5.76966,9.31381,2.26346,7.62327,8.23479,2.25515,7.71105,8.80592,2.2387,8.2802,8.71544,2.24712,8.07782,7.64706,2.25986,7.4617,8.01293,2.24112,8.32715,7.75789,2.24545,4.85057,7.066,2.24053
17.3546,17.8244,3.82299,15.9182,16.0503,3.67859,14.6821,15.3688,3.66739,15.443,16.739,3.69139,15.4761,18.5156,3.67631,15.3727,17.6946,3.68519,17.0953,15.7637,3.64798,15.7208,20.4888,3.66314,17.7782,17.3445,3.67568,21.8184,23.7584,3.65582,23.8602,18.2163,3.65044,19.2691,22.0849,3.63276,23.388,20.6106,3.65921,23.5986,15.5107,3.65412,23.4077,16.8301,3.67554
36.7405,34.7673,5.86512,32.118,35.7394,5.96891,31.3908,30.3006,5.86225,29.4832,28.7377,5.83515,27.3266,30.068,5.83613,28.2026,34.4401,5.87418,34.7189,27.653,5.87225,33.6846,26.7577,5.87003,31.3567,26.8288,5.8655,34.5747,38.4106,5.86279,43.8986,36.9193,5.85386,40.3703,34.5291,5.84551,44.4256,33.5066,5.84938,35.8258,47.0032,5.9364,41.3742,36.0432,5.85932
54.0212,56.3,8.50825,53.2865,50.9748,8.71127,48.5204,48.9923,8.56522,47.5914,47.8461,8.56804,51.084,47.0126,8.53449,54.1434,54.5101,8.52776,48.9271,51.6521,8.50866,53.46,50.0389,8.50041,58.9602,57.0081,8.52231,58.9735,55.5597,8.5715,59.5519,60.6015,8.56714,63.5107,63.89,8.48813,60.3979,65.3033,8.56997,77.7683,70.6215,8.50852,66.7335,75.2692,8.67544
