size,oblas-20OMP,starblas
1000,0.210367,0.516038
2000,1.67931,1.23368
3000,8.10371,2.20623
4000,19.5074,3.66532
5000,43.5513,5.82301
6000,65.2995,8.68505
7000,110.706,12.6104
8000,142.13,17.3179
9000,154.16,23.3867
